"id","soil_characterisation_id","coarse_frag_abund_id"
"103034",118597,"NC"
"103035",118598,"NC"
"103036",118599,"NC"
"103037",118600,"NC"
"103038",118601,"NC"
"103039",118602,"NC"
"103040",118603,"NC"
"103041",118604,"NC"
"103042",118605,"NC"
"103043",118606,"NC"
