"id","type","description"
"A","Auger boring","Use of a hand auger (drill-bit like device) to extract soil samples"
"P","Soil pit","Soils samples obtained via the digging of a pit to expose the soil profile"
"E","Exposure","Soils samples obtained from an existing exposure at the site (can be unreliable)"
"C","Soil core","Use of a soil core sampling tube to obtain a relatively undisturbed soil profile"
"PA","Pit and Auger","Use of a Pit as far as possible, and then an Auger to get to the required depth"
"T","10cm Samples","10cm Samples"
"NC","Not Collected","Not Collected (typical for a re-visit)"
