"id","drainage","description"
1,"Very poor","Water is removed from the soil so slowly that the watertable remains at or near the surface for most of the year. Surface flow; groundwater and subsurface flow are major sources of water; although precipitation may be important where there is a perched watertable and precipitation exceeds evapotranspiration. Soils have a wide range in texture and depth; and often occur in depressed sites. Strong gleying and accumulation of surface organic matter are usually features of most soils."
2,"Poor","Water is removed very slowly in relation to supply. Subsurface and/or groundwater flow; as well as precipitation; may be a significant water source. Seasonal ponding; resulting from runon and insufficient outfall; also occurs.  A perched watertable may be present. Soils have a wide range in texture and depth; many have horizons that are gleyed; mottled; or possess orange or rusty linings of root channels. All horizons remain wet for several months."
3,"Imperfect","Water is removed on slowly in relation to supply. Precipitation is the main source if available water storage capacity is high; but surface subflow and/or groundwater contribute as available water storage capacity decreases. Soils have a wide range in texture and depth. Some horizons may be mottled and/or have orange or rusty linings of root channels; and are wet for several weeks."
4,"Moderately well","Water is removed from the soil somewhat slowly in relation to supply; due to low permeability; shallow watertable; lack of gradient; or some combination of these. Soils are usually medium to fine in texture. Significant additions of water by subsurface flow are necessary in coarse-textured soil. Some horizons may remain wet for as long as one week after water addition."
5,"Well","Water is removed from the soil readily but not rapidly. Excess water flows downward readily into underlying; moderately permeable material or laterally as subsurface flow. The soils are often medium in texture. Some horizons may remain wet for several days after water addition."
6,"Rapid","Water is removed from the soil rapidly in relation to supply. Excess water flows downward rapidly if underlying material is highly permeable. There may be rapid subsurface lateral flow during heavy rainfall provided there is a steep gradient. Soils are usually coarse-textured; or shallow; or both. No horizon is normally wet for more than several hours after water addition."
7,"Not recorded","Not recorded"
