"code","landform_element","description"
"ALC","Alcove","Moderately inclined to very steep; short open depression with concave cross-section; eroded by collapse; landslides; creep or surface wash."
"BKP","Backplain","Large flat resulting from aggradation by overbank stream flow at some distance from the stream channel and in some cases biological (peat) accumulation; often characterised by a high watertable and the presence of swamps or lakes; part of a covered plain landform pattern."
"BAN","Bank (stream bank)","Very short; very wide slope; moderately inclined to precipitous; forming the marginal upper parts of a stream channel and resulting from erosion or aggradation by channelled stream flow."
"BAR","Bar (stream bar)","Elongated; gently to moderately inclined; low ridge built up by channelled stream flow; part of a stream bed."
"DUB","Barchan dune","Crescent shaped dune with tips extending leeward (downwind); making this side concave and the windward (upwind) side convex. Barchan dunes tend to be arranged in chains extending in the dominant wind direction."
"BEA","Beach","Short; low; very wide slope; gently or moderately inclined; built up or eroded by waves; forming the shore of a lake or sea."
"BRI","Beach ridge","Very long; nearly straight; low ridge; built up by waves and usually modified by wind. A beach ridge is often a relict feature remote from the beach."
"BEN","Bench","Short; gently or very gently inclined minimal mid-slope element eroded or aggraded by any agent."
"BER","Berm","(i) Short; very gently inclined to level minimal mid-slope in an embankment or cut face; eroded or aggraded by human activity. (ii) Flat built up by waves above a beach."
"BOU","Blow-out","Usually small; open or closed depression excavated by the wind."
