"id","size"
"1","Fine gravelly or small pebbles (2-6mm)"
"2","Medium gravelly or medium pebbles (6-20mm)"
"3","Coarse gravelly or large pebbles (20-60mm)"
"4","Cobbly or cobbles (60-200mm)"
"5","Stony or stones (200-600mm)"
"7","Large Boulders (>2000mm)"
"NC","Not Collected"
"n/a","Not Applicable"
"6","Bouldery or boulders (600-2000mm)"
