"id","landform_pattern","description","typical_elements","common_elements","occasional_elements","compare_with"
"FLO","Floodplain","Alluvial plain characterised by frequently active erosion and aggradation by channelled or overbank stream flow. Unless otherwise specified; 'frequently active' is to mean that flow has an Average Recurrence Interval of 50 years or less. Included types of landform pattern are: bar plain; meander plain; covered plain; anastomotic plain. Related relict landform patterns are: stagnant alluvial plain; terrace; terraced land (partly relict).","Stream channel (stream bed and bank); plain (dominant)","Bar; scroll; levee; backplain; swamp","Ox-bow; flood-out; scroll","None specified"
"HIL","Hills","Landform pattern of high relief (90-300 m) with gently inclined to precipitous slopes. Fixed; shallow; erosional stream channels; closely to very widely spaced; form a non-directional or convergent; integrated tributary network. There is continuously active erosion by wash and creep and; in some cases; rarely active erosion by landslides.","Hillcrest; hillslope (dominant); drainage depression; stream bed","Footslope; alcove; valley flat; gully","Tor; summit surface; scarp; landslide; talus; bench; terrace; doline","Mountains; Low hills; Rises and Plain"
"KAR","Karst","Landform pattern of unspecified relief and slope typically with fixed; deep; erosional stream channels forming a non-directional; disintegrated tributary pattern and many closed depressions without stream channels. It is eroded by continuously active solution and rarely active collapse; the products being removed through underground channels.","Hillcrest; hillslope (dominant); doline","Summit surface; valley flat; plain; alcove; drainage depression; stream channel; scarp; footslope; landslide","Talus.","None specified"
"LAC","Laclustrine plain","Level landform pattern with extremely low relief formerly occupied by a lake but now partly or completely dry. It is relict after aggradation by waves and by deposition of material from suspension and solution in standing water. The pattern is usually bounded by wave-formed features such as cliffs; rock platforms; beaches; berms and lunettes. These may be included or excluded.","Plain","Beach; cliff","Rock platform; berm","Playa plain"
"LAV","Lava plain","Level to undulating landform pattern of very low to extremely low relief typically with widely spaced; fixed; erosional stream channels that form a non-directional; integrated or interrupted tributary pattern. The landform pattern is aggraded by volcanism (lava flow) that is generally relict; it is subject to erosion by continuously active sheet flow; creep; and channelled stream flow.","Plain; hillslope; stream bed","None specified","Tumulus","None specified"
"LON","Longitudinal dunefield","Dunefield characterised by long; narrow sand dunes and wide; flat swales. The dunes are oriented parallel with the direction of the prevailing wind; and in cross-section one slope is typically steeper than the other.","Dune or dunecrest; duneslope; swale; blow-out","None specified","None specified","Parabolic dunefield"
"LOW","Low hills","Landform pattern of low relief (30-90 m) and gentle to very steep slopes; typically with fixed; erosional stream channels; closely to very widely spaced; which form a non-directional or convergent; integrated tributary pattern. There is continuously active sheet flow; creep; and channelled stream flow.","Hillcrest; hillslope (dominant); drainage depression; stream bed","Footslope; alcove; valley flat; gully","Tor; summit surface; landslide; doline","Mountains; Hills; Rises and Plain"
"MAD","Made land","Landform pattern typically of very low or extremely low relief and with slopes either level or very steep. Sparse; fixed; deep; artificial stream channels form a non-directional; interrupted tributary pattern. The landform pattern is eroded and aggraded; and locally built up or excavated; by rarely active human agency.","Fill-top (dominant); cut-over surface; cut face; embankment; berm; trench","Mound; pit; dam","None specified","None specified"
"MAR","Marine plain","Plain eroded or aggraded by waves; tides; or submarine currents; and aggraded by deposition of material from suspension and solution in sea water; elevated above sea level by earth movements or eustasy; and little modified by subaerial agents such as stream flow or wind","Plain","None specified","Dune; stream channel","None specified"
"MEA","Meander plain","Flood plain with widely spaced; rapidly migrating; moderately deep alluvial stream channels which form a unidirectional; integrated non-tributary network. There is frequently active aggradation and erosion by channelled stream flow with subordinate aggradation by overbank stream flow.","Stream channel (stream bed; bank and bar); scroll; scroll plain (dominant)","Ox-bow","None specified","Other types under Alluvial plain and Flood plain"
