"id","site_location_visit_id","completion_date_time","photo_storage_location","photopoint_lat_1","photopoint_long_1","photopoint_lat_2","photopoint_long_2","photopoint_lat_3","photopoint_long_3","photopoint_centre_peg_lat","photopoint_centre_peg_long"
10493,53483,"2014-09-03 12:00:00","All photos are stored at the TERN AusPlots facility, Level 12 Schultz building, Adelaide University North Terrace Campus.  Contact christina.pahl@adelaide.edu.au for access requests.","","","","","","","",""
10494,53484,"2014-09-03 12:00:00","All photos are stored at the TERN AusPlots facility, Level 12 Schultz building, Adelaide University North Terrace Campus.  Contact christina.pahl@adelaide.edu.au for access requests.","","","","","","","",""
10566,53536,"2013-07-17 15:52:00","All photos are stored at the TERN AusPlots facility, Level 12 Schultz building, Adelaide University North Terrace Campus.  Contact christina.pahl@adelaide.edu.au for access requests.","","","","","","","",""
10486,53474,"2013-12-03 10:36:17","All photos are stored at the TERN AusPlots facility, Level 12 Schultz building, Adelaide University North Terrace Campus.  Contact christina.pahl@adelaide.edu.au for access requests.","","","","","","","",""
10495,53485,"2013-07-17 12:20:00","All photos are stored at the TERN AusPlots facility, Level 12 Schultz building, Adelaide University North Terrace Campus.  Contact christina.pahl@adelaide.edu.au for access requests.","","","","","","","",""
10488,53476,"2013-07-26 15:15:33","All photos are stored at the TERN AusPlots facility, Level 12 Schultz building, Adelaide University North Terrace Campus.  Contact christina.pahl@adelaide.edu.au for access requests.","","","","","","","",""
10496,53486,"2013-07-18 09:10:00","All photos are stored at the TERN AusPlots facility, Level 12 Schultz building, Adelaide University North Terrace Campus.  Contact christina.pahl@adelaide.edu.au for access requests.","","","","","","","",""
10497,53487,"2013-07-19 14:42:00","All photos are stored at the TERN AusPlots facility, Level 12 Schultz building, Adelaide University North Terrace Campus.  Contact christina.pahl@adelaide.edu.au for access requests.","","","","","","","",""
10482,53470,"2013-07-02 14:55:05","All photos are stored at the TERN AusPlots facility, Level 12 Schultz building, Adelaide University North Terrace Campus.  Contact christina.pahl@adelaide.edu.au for access requests.","","","","","","","",""
10530,53524,"2013-06-13 14:28:00","All photos are stored at the TERN AusPlots facility, Level 12 Schultz building, Adelaide University North Terrace Campus.  Contact christina.pahl@adelaide.edu.au for access requests.","","","","","","","",""
