"id","site_location_visit_id","veg_barcode","method","point_number","substrate","in_canopy_sky","dead","growth_form","height","transect"
54138054,53438,"","Staff",0,"Crypto","","","","","S1-N1"
54138055,53438,"","Staff",1,"Crypto","","","","","S1-N1"
54138056,53438,"WAA  001053","Staff",2,"Litter",False,False,"Shrub","3.5","S1-N1"
54138057,53438,"WAA  001053","Staff",3,"Litter",False,False,"Shrub","3.5","S1-N1"
54138058,53438,"WAA  001053","Staff",4,"Litter",False,False,"Shrub","3.7","S1-N1"
54138059,53438,"WAA  001053","Staff",5,"Litter",False,False,"Shrub","3.5","S1-N1"
54138060,53438,"","Staff",6,"Crypto","","","","","S1-N1"
54138061,53438,"","Staff",7,"Crypto","","","","","S1-N1"
54138062,53438,"","Staff",8,"Litter","","","","","S1-N1"
54138063,53438,"","Staff",9,"Crypto","","","","","S1-N1"
