"id","site_location_visit_id","subsite_id","zone","easting","northing","zero_to_ten_barcode","ten_to_twenty_barcode","twenty_to_thirty_barcode","comments","metagenomics_are_available","metagenomic_barcode","metagenomic_url","photo_no","photo_url","observer"
329225,53521,"2",53,332483,8088467,"NTT  000007","NTT  000008","NTT  000009","litter",True,"AUG006229","","P3150114","",2
329226,53521,"3",53,332486,8088453,"NTT  000010","NTT  000011","NTT  000012","stoney",True,"AUG006230","","P3150115","",2
329227,53521,"4",53,332495,8088458,"NTT  000013","NTT  000014","NTT  000015","cryptogam",True,"AUG006231","","P3150116","",2
329228,53521,"5",53,332473,8088452,"NTT  000016","NTT  000017","NTT  000018","litter",True,"AUG006232","","P3150117","",2
329229,53521,"6",53,332557,8088467,"NTT  000019","NTT  000020","NTT  000021","stoney",True,"AUG006233","","P3150118","",2
329230,53521,"7",53,332515,8088850,"NTT  000022","NTT  000023","NTT  000024","bare ground base of anthill",True,"AUG006234","","P3150119","",2
329231,53521,"8",53,332477,8088533,"NTT  000025","NTT  000026","NTT  000027","stoney",True,"AUG006235","","P3150120","",2
329232,53521,"9",53,332554,8088539,"NTT  000028","NTT  000029","NTT  000030","gravel",True,"AUG006236","","P3150121","",2
329233,53467,"1",54,720038,7331197,"QDA   050539","QDA   050540","QDA   050541","bare ground",True,"QDA 053766","","0217","",2
329234,53467,"2",54,720048,7331200,"QDA   050542","QDA   050543","QDA   050544","base of Eremophila",True,"QDA 053767","","0218","",2
