"id","site_location_visit_id","sample_id","paper_bag_weight","oven_dried_weight_in_bag","ring_weight","gravel_weight","ring_volume","gravel_volume","fine_earth_weight_in_bag","fine_earth_weight","fine_earth_volume","fine_earth_bulk_density","gravel_bulk_density","wet_weight_in_bag"
64742,53521,"0","","","","","","","","","","","",""
64743,53521,"1","","","","","","","","","","","",""
64744,53521,"2","","","","","","","","","","","",""
64745,53467,"0","","","154.26","","209.35","","","393.05","209.35","1.877477908","",""
64746,53467,"1","","","152.27","","209.35","","","386.61","209.35","1.846716026","",""
64747,53467,"2","","","152.36","","209.35","","","376.92","209.35","1.800429902","",""
64748,53468,"0","","","154.53","","209.35","","","318.57","209.35","1.52","",""
64749,53468,"1","","","162.15","","209.35","","","352.28","209.35","1.68","",""
64751,53522,"0","","","151.8","","209.35","","","345.5","209.35","1.65","",""
64752,53522,"1","","","","","","","","","","","",""
