"species_name","growth_form"
"Abelmoschus ficulneus","Forb"
"Abildgaardia ovata ","Sedge"
"Abutilon cryptopetalum","Forb"
"Abutilon cryptopetalum subsp. cryptopetalum","Forb"
"Abutilon fraseri","Forb"
"Abutilon fraseri subsp. fraseri","Forb"
"Abutilon halophilum","Forb"
"Abutilon hannii","Forb"
"Abutilon leucopetalum","Forb"
"Abutilon leucopetalum ","Forb"
