"id","site_location_visit_id","phenology_comment","upper_1_dominant","upper_2_dominant","upper_3_dominant","mid_1_dominant","mid_2_dominant","mid_3_dominant","ground_1_dominant","ground_2_dominant","ground_3_dominant","description","mass_flowering_event"
52475,56997,"NC","-1","-1","-1","-1","-1","-1","SAS001508","SAS001515","SAS001501","Enchylaena tomentosa / Maireana georgei hybrid and Maireana Pyramidata low open chenopod shrubland. Ground layer dominated by Carrichtera annua and Medicago minima.",""
52213,53573,"FLOWERS ON ALUTA,  DODONAEA,  HALGANIA,  ACACIA,  ANGIANTHUS,  BONAMIA,  ephemerals,  Leptosemma, ","WAA  004396","","","WAA  004452","WAA  004436","WAA  004404","WAA  004402","WAA  004432","WAA  004394","Eucalyptus gongylocarpa Open woodland (<10m) with Isolated mallee shrubs (<3(<10)m) of Eucalyptus sp., Eucalyptus leptopoda subsp. elevata, Eucalyptus kingsmillii subsp. kingsmillii. Isolated shrubs (>2m) of Hakea francisiana, and Grevillea juncifolia subsp. temulenta. Sparse shrubland (1-2m) of Acacia ligulata, Acacia effusifolia, Acacia minyura, Acacia jamesiana, Eremophila forrestii subsp. forrestii, Eremophila platythamnos subsp. platythamnos, Senna artemisioides subsp. x artemisioides, Acacia pachyachra. Sparse shrubland (<1m) of Halgania cyanea var. Allambi Station (B.W. Strong 676), ",False
52206,53566,"","","","","","","","NTA  005475","","","Sida fibulifera low sparse forbland with sparse grasses, chenopods and forbs.",False
52215,53575,"NC","NTA  006747","","","NTA  006809","","","NTA  006761","","","Eucalyptus camaldulensis subsp. arida open woodland with a sparse mid layer of Melaleuca trichostachya and a mixed ground layer of tussock grasses and forbs dominated by Cynodon dactylon",False
52113,53473,"","QDA  005263","QDA  005233","QDA  005263","","","","QDA  005279","","","Eucalyptus similis mid open forest with Eucalyptus crebra, Erythrophleum chlorostachys, Corymbia polycarpa and Eucalyptus tetrodonta. Mid-stratum is juvenile trees and Grevillea spp. Ground stratum dominated by Themeda triandra. ",False
52095,53455,"","WAA  002236","WAA  002242","","WAA  002294","WAA  002261","WAA  002256","WAA  002248","WAA  002309","","Melaleuca calyptroides / Conospermum stoechadis subsp. stoechadis/ 
Melaleuca cordata low shrubland with isolated Eucalyptus ceratocorys, Eucalyptus leptopoda subsp. subluta, Eucalyptus rigidula (<3m)  and a dense understory of Triodia rigidissima.",False
52252,53616,"Flowering in both Eremophila gilesii and Eremophila latrobei subsp. glabra. Patchy flowering in Acacia aptaneura and Acacia aneura","","","","NTA 001175","NTA 001180","NTA 001199","NTA 001189","","","Acacia aneura/ Acacia aptaneura tall shrubland with a ground stratum dominated by tussock grasses Thyridolepis mitchelliana, Eragrostis eriopoda subsp. red earth. Isolated Eremophila latrobei subsp. glabra and other shrubs in the mid-stratum.",False
52257,53621,"Rainfall 2 weeks previous. Surface dry. Germination in Sida platycalyx and Boerhavia burbidgeana. Flowering in 50% Acacia aptaneura . Grasses that are regenerating Eragrostis eriopoda subsp. red earths have seed heads. ","","","","NTA 001422","","","NTA 001379","","","Acacia aptaneura tall shrubland with scattered emergent Corymbia opaca. A tussock grass understratum of Paraneurachne muelleri. Some scattered sparse clumps of Triodia schinzii in more open areas.",False
52258,53622,"No signs of recent fruiting in Acacia estrophiolata","NTA 000100","","","NTA 000100","","","NTA 000053","NTA 000081","NTA 000064","Acacia estrophiolata low woodland with understratum dense understratum of Cenchrus ciliaris.",False
52259,53623,"","NTA 000119","","","","","","NTA 000108","","","Eucalyptus camaldulensis mid woodland with a sparse tussock grass understratum dominated by Cynodon dactylon. Isolated Melaleuca glomerata shrubs in the mid-stratum.",False
