{
  "@graph" : [ {
    "@id" : "_:b0",
    "@type" : "plot:Quantitative-measure",
    "standard" : "http://www.opengis.net/def/crs/epsg/0/5711",
    "value" : "310"
  }, {
    "@id" : "_:b1",
    "@type" : "sosa:Observation",
    "hasResult" : "cv-corveg:landform-element-CRA",
    "observedProperty" : "op:landform-element"
  }, {
    "@id" : "_:b10",
    "@type" : "sosa:Observation",
    "hasResult" : "cv-corveg:geology-type-B",
    "observedProperty" : "op:geology-lithology"
  }, {
    "@id" : "_:b11",
    "@type" : "plot:Boolean",
    "rdf:value" : true
  }, {
    "@id" : "_:b12",
    "@type" : "plot:Quantitative-measure",
    "standard" : "unit:M2",
    "value" : "30"
  }, {
    "@id" : "_:b13",
    "@type" : "sosa:Observation",
    "hasResult" : "_:b14",
    "observedProperty" : "op:cover-avg",
    "usedProcedure" : "cv-corveg:cover-method-V"
  }, {
    "@id" : "_:b14",
    "@type" : "plot:Percent",
    "value" : "49"
  }, {
    "@id" : "_:b15",
    "@type" : "plot:Boolean",
    "rdf:value" : false
  }, {
    "@id" : "_:b16",
    "@type" : "sosa:Observation",
    "hasResult" : "cv-corveg:landform-pattern-TER",
    "observedProperty" : "op:landform-pattern"
  }, {
    "@id" : "_:b17",
    "@type" : "sosa:Observation",
    "hasResult" : "_:b18",
    "observedProperty" : "op:cover",
    "usedProcedure" : "cv-corveg:cover-method-I"
  }, {
    "@id" : "_:b18",
    "@type" : "plot:Percent-range",
    "avg" : "20"
  }, {
    "@id" : "_:b19",
    "@type" : "sosa:Observation",
    "hasResult" : "cv-corveg:rainforest-structure-complexity-S",
    "observedProperty" : "op:rF-complexity"
  }, {
    "@id" : "_:b2",
    "@type" : "plot:Boolean",
    "rdf:value" : true
  }, {
    "@id" : "_:b20",
    "@type" : "sosa:Observation",
    "hasResult" : "_:b15",
    "observedProperty" : "op:stratum-present"
  }, {
    "@id" : "_:b21",
    "@type" : "sosa:Observation",
    "hasResult" : "cv-corveg:rainforest-igf-vine",
    "observedProperty" : "op:rF-indicator-growth-form"
  }, {
    "@id" : "_:b22",
    "@type" : "sosa:Observation",
    "hasResult" : "_:b34",
    "observedProperty" : "op:stratum-present"
  }, {
    "@id" : "_:b23",
    "@type" : "time:Instant",
    "inXSDDate" : "2007-07-23"
  }, {
    "@id" : "_:b24",
    "@type" : "plot:SiteStratum",
    "type" : "cv-corveg:stratum-S2",
    "isSampleOf" : "ex-0:Site-19378"
  }, {
    "@id" : "_:b25",
    "@type" : "sosa:Observation",
    "hasResult" : "_:b11",
    "observedProperty" : "op:stratum-present"
  }, {
    "@id" : "_:b26",
    "@type" : "sosa:Observation",
    "hasResult" : "_:b27",
    "observedProperty" : "op:height"
  }, {
    "@id" : "_:b27",
    "@type" : "plot:Quantitative-range",
    "avg" : "3",
    "high" : "4",
    "low" : "1.5",
    "standard" : "unit:M"
  }, {
    "@id" : "_:b28",
    "@type" : "plot:Boolean",
    "rdf:value" : false
  }, {
    "@id" : "_:b29",
    "@type" : "sosa:Observation",
    "hasResult" : "linn:5370",
    "observedProperty" : "op:taxon-identity",
    "usedProcedure" : "cv-corveg:taxa-identification-V"
  }, {
    "@id" : "_:b3",
    "@type" : "time:Instant",
    "inXSDDate" : "2013-10-03"
  }, {
    "@id" : "_:b30",
    "@type" : "plot:SiteTaxon",
    "isSampleOf" : "ex-0:Site-3727"
  }, {
    "@id" : "_:b31",
    "@type" : "time:Instant",
    "inXSDDate" : "2012-01-10"
  }, {
    "@id" : "_:b32",
    "@type" : "plot:Quantitative-range",
    "avg" : "0.4",
    "high" : "1",
    "low" : "0.1",
    "standard" : "unit:M"
  }, {
    "@id" : "_:b33",
    "@type" : "plot:Percent",
    "value" : "60"
  }, {
    "@id" : "_:b34",
    "@type" : "plot:Boolean",
    "rdf:value" : false
  }, {
    "@id" : "_:b35",
    "@type" : "plot:Percent",
    "value" : "67"
  }, {
    "@id" : "_:b36",
    "@type" : "sosa:Observation",
    "hasResult" : "cv-corveg:rainforest-floristics-structure-S",
    "observedProperty" : "op:rF-floristics-structure"
  }, {
    "@id" : "_:b37",
    "@type" : "sosa:Observation",
    "hasResult" : "_:b49",
    "observedProperty" : "op:basal-area"
  }, {
    "@id" : "_:b38",
    "@type" : "sosa:Observation",
    "hasResult" : "linn:12849",
    "observedProperty" : "op:taxon-identity",
    "usedProcedure" : "cv-corveg:taxa-identification-V"
  }, {
    "@id" : "_:b39",
    "@type" : "time:Instant",
    "inXSDDate" : "2013-10-03"
  }, {
    "@id" : "_:b4",
    "@type" : "sosa:Observation",
    "hasResult" : "_:b35",
    "observedProperty" : "op:cover-bare"
  }, {
    "@id" : "_:b40",
    "@type" : "plot:SiteTaxon",
    "isSampleOf" : "ex-0:Site-3727"
  }, {
    "@id" : "_:b41",
    "@type" : "sosa:Observation",
    "hasResult" : "_:b2",
    "observedProperty" : "op:stratum-present"
  }, {
    "@id" : "_:b42",
    "@type" : "time:Instant",
    "inXSDDate" : "2012-01-10"
  }, {
    "@id" : "_:b43",
    "@type" : "plot:SiteStratum",
    "type" : "cv-corveg:stratum-T1",
    "isSampleOf" : "ex-0:Site-19378"
  }, {
    "@id" : "_:b44",
    "@type" : "sosa:Observation",
    "hasResult" : "_:b45",
    "observedProperty" : "op:stratum-present"
  }, {
    "@id" : "_:b45",
    "@type" : "plot:Boolean",
    "rdf:value" : true
  }, {
    "@id" : "_:b46",
    "@type" : "sosa:Observation",
    "hasResult" : "_:b0",
    "observedProperty" : "op:altitude"
  }, {
    "@id" : "_:b47",
    "@type" : "sosa:Observation",
    "hasResult" : "_:b48",
    "observedProperty" : "op:geology-stratigraphic-unit"
  }, {
    "@id" : "_:b48",
    "@type" : "plot:Text",
    "rdf:value" : "Qpa"
  }, {
    "@id" : "_:b49",
    "@type" : "plot:Quantitative-measure",
    "rdf:value" : "unknown"
  }, {
    "@id" : "_:b5",
    "@type" : "sosa:Observation",
    "hasResult" : "_:b70",
    "observedProperty" : "op:cover-litter"
  }, {
    "@id" : "_:b50",
    "@type" : "sosa:Observation",
    "hasResult" : "_:b51",
    "observedProperty" : "op:stem-density"
  }, {
    "@id" : "_:b51",
    "@type" : "plot:Quantitative-measure",
    "standard" : "unit:PER-HA",
    "value" : "330"
  }, {
    "@id" : "_:b52",
    "@type" : "sosa:Observation",
    "hasResult" : "cv-corveg:rainforest-leafsize-7",
    "observedProperty" : "op:rF-leafsize"
  }, {
    "@id" : "_:b53",
    "@type" : "time:Instant",
    "inXSDDate" : "2007-07-23"
  }, {
    "@id" : "_:b54",
    "@type" : "sosa:Observation",
    "hasResult" : "_:b28",
    "observedProperty" : "op:stratum-present"
  }, {
    "@id" : "_:b55",
    "@type" : "plot:SiteStratum",
    "type" : "cv-corveg:stratum-E",
    "isSampleOf" : "ex-0:Site-19378"
  }, {
    "@id" : "_:b56",
    "@type" : "sosa:Observation",
    "hasResult" : "cv-corveg:rainforest-deciduousness-C",
    "observedProperty" : "op:rF-leaf-character"
  }, {
    "@id" : "_:b57",
    "@type" : "geo:Point",
    "lat" : "-14.9318118",
    "long" : "145.25109782"
  }, {
    "@id" : "_:b58",
    "@type" : "time:Instant",
    "inXSDDate" : "2007-07-23"
  }, {
    "@id" : "_:b59",
    "@type" : "plot:SiteStratum",
    "type" : "cv-corveg:stratum-T3",
    "isSampleOf" : "ex-0:Site-19378"
  }, {
    "@id" : "_:b6",
    "@type" : "time:Instant",
    "inXSDDate" : "1990-05-07"
  }, {
    "@id" : "_:b60",
    "@type" : "sosa:Observation",
    "hasResult" : "cv-corveg:slope-relief-type-UH",
    "observedProperty" : "op:slope-type"
  }, {
    "@id" : "_:b61",
    "@type" : "sosa:Observation",
    "hasResult" : "cv-corveg:landform-type-A",
    "observedProperty" : "op:landform-type"
  }, {
    "@id" : "_:b62",
    "@type" : "time:Instant",
    "inXSDDate" : "2013-08-20"
  }, {
    "@id" : "_:b63",
    "@type" : "time:Instant",
    "inXSDDate" : "2014-05-30"
  }, {
    "@id" : "_:b64",
    "@type" : "sosa:Observation",
    "hasResult" : "_:b32",
    "observedProperty" : "op:height"
  }, {
    "@id" : "_:b65",
    "@type" : "plot:SiteStratum",
    "type" : "cv-corveg:stratum-G",
    "isSampleOf" : "ex-0:Site-19378"
  }, {
    "@id" : "_:b66",
    "@type" : "sosa:Observation",
    "hasResult" : "_:b72",
    "observedProperty" : "op:basal-area"
  }, {
    "@id" : "_:b67",
    "@type" : "sosa:Observation",
    "hasResult" : "cv-corveg:structural-formation-OW",
    "observedProperty" : "op:structural-formation"
  }, {
    "@id" : "_:b68",
    "@type" : "time:Instant",
    "inXSDDate" : "2007-05-18"
  }, {
    "@id" : "_:b69",
    "@type" : "plot:Quantitative-range",
    "avg" : "7",
    "high" : "9",
    "low" : "6",
    "standard" : "unit:M"
  }, {
    "@id" : "_:b7",
    "@type" : "time:Instant",
    "inXSDDate" : "2014-01-28"
  }, {
    "@id" : "_:b70",
    "@type" : "plot:Percent",
    "value" : "18"
  }, {
    "@id" : "_:b71",
    "@type" : "time:Instant",
    "inXSDDate" : "2015-08-17"
  }, {
    "@id" : "_:b72",
    "@type" : "plot:Quantitative-measure",
    "value" : "0.0006",
    "comment" : "6 m2/Ha == 6e10-4"
  }, {
    "@id" : "_:b73",
    "@type" : "sosa:Observation",
    "hasResult" : "_:b69",
    "observedProperty" : "op:height"
  }, {
    "@id" : "_:b74",
    "@type" : "sosa:Observation",
    "hasResult" : "_:b33",
    "observedProperty" : "op:cover-avg",
    "usedProcedure" : "cv-corveg:cover-method-V"
  }, {
    "@id" : "_:b75",
    "@type" : "plot:SiteStratum",
    "type" : "cv-corveg:stratum-S1",
    "isSampleOf" : "ex-0:Site-19378"
  }, {
    "@id" : "_:b8",
    "@type" : "sosa:Observation",
    "hasResult" : "cv-corveg:landform-pattern-MOU",
    "observedProperty" : "op:erosion-pattern"
  }, {
    "@id" : "_:b9",
    "@type" : "sosa:Observation",
    "hasResult" : "cv-corveg:structural-formation-classification-system-S",
    "observedProperty" : "op:structural-formation-classification"
  }, {
    "@id" : "http://www.tern.org.au/dataset/examples/corveg-0",
    "@type" : "owl:Ontology",
    "imports" : [ "cv:corveg", "http://www.tern.org.au/ns/plot", "http://www.w3.org/2006/time", "cv:tern" ]
  }, {
    "@id" : "ex-0:D-3729-1",
    "@type" : "ssn-ext:ObservationCollection",
    "type" : "ogroup:Site-description",
    "label" : "Site 3729 basic description",
    "hasFeatureOfInterest" : "ex-0:Site-3729",
    "phenomenonTime" : "_:b6",
    "resultTime" : "2018-01-09T12:00:00",
    "hasMember" : [ "_:b4", "_:b5" ]
  }, {
    "@id" : "ex-0:G-1904",
    "@type" : "ssn-ext:ObservationCollection",
    "modified" : "2007-05-18",
    "type" : "ogroup:Geology",
    "hasResultQuality" : "cv-corveg:geology-reliability-H",
    "comment" : "Quaternary Pleistocene deposits of clay, silt, sand and gravel, floodplain deposits on higher terraces.",
    "label" : "Site 1904 geology",
    "hasFeatureOfInterest" : "ex-0:Site-1904",
    "phenomenonTime" : "_:b63",
    "usedProcedure" : "cv-corveg:geology-source-I",
    "hasMember" : [ "_:b47", "_:b10" ]
  }, {
    "@id" : "ex-0:L-3614",
    "@type" : "plot:Location",
    "description" : "APPROXIMATELY 8 KM NW OF CAPE FLATTERY TOWNSHIP, ON THE ROAD TO LOOKOUT POINT",
    "modified" : "2007-05-18",
    "mapScale" : "cv-corveg:mapscale-100000",
    "mapsheetName" : "CAPE MELVILLE",
    "mapsheetNumber" : "7968",
    "geographicName" : "COOK",
    "geometry" : "_:b57",
    "usedProcedure" : "cv-corveg:location-derivation-B"
  }, {
    "@id" : "ex-0:P-265",
    "@type" : "prov:Activity",
    "label" : "PROJECT 265"
  }, {
    "@id" : "ex-0:RFS-2714",
    "@type" : "ssn-ext:ObservationCollection",
    "type" : "ogroup:RFStructure",
    "label" : "Site 2714 rain-forest structure",
    "hasFeatureOfInterest" : "ex-0:Site-2714",
    "phenomenonTime" : "_:b7",
    "hasMember" : [ "_:b19", "_:b52", "_:b56", "_:b21", "_:b36" ]
  }, {
    "@id" : "ex-0:SS-3758",
    "@type" : "ssn-ext:ObservationCollection",
    "type" : "ogroup:Structure",
    "label" : "Site 3758 structure",
    "hasFeatureOfInterest" : "ex-0:S-3758",
    "phenomenonTime" : "_:b68",
    "hasMember" : [ "_:b66", "_:b50", "_:b9", "_:b67" ]
  }, {
    "@id" : "ex-0:Sit-2479",
    "@type" : "ssn-ext:ObservationCollection",
    "type" : "ogroup:Situation",
    "comment" : "Can't find Erosion Pattern vocabulary",
    "label" : "Site 2479 situation",
    "hasFeatureOfInterest" : "ex-0:Site-2479",
    "phenomenonTime" : "_:b62",
    "hasMember" : [ "_:b60", "_:b8", "_:b46", "_:b1", "_:b61", "_:b16" ]
  }, {
    "@id" : "ex-0:Site-3729",
    "@type" : "plot:Site",
    "description" : "Swampy depression still holding water.  Variable 20% shrubs in patches, lower 50-1m.  Patches 80% shrubs taller 1.5m tall.  Patches where shrubs more open/variable water depths.MU175 now in RE3.2.18 after v11 review.",
    "identifier" : "FLAT14",
    "modified" : "2018-01-09",
    "type" : [ "cv-corveg:site-sample-level-R", "cv-corveg:site-sample-type-C" ],
    "hasArea" : "_:b12",
    "siteDescription" : "ex-0:D-3729-1",
    "location" : "ex-0:L-3614",
    "wasGeneratedBy" : "ex-0:P-265",
    "hasUltimateFeatureOfInterest" : "bioregion:qld-CHC"
  }, {
    "@id" : "ex-0:St1-19378",
    "@type" : "ssn-ext:ObservationCollection",
    "type" : "ogroup:Strata",
    "label" : "Site 19378 stratum 1",
    "hasFeatureOfInterest" : "_:b55",
    "phenomenonTime" : "_:b53",
    "hasMember" : "_:b54"
  }, {
    "@id" : "ex-0:St2-19378",
    "@type" : "ssn-ext:ObservationCollection",
    "type" : "ogroup:Strata",
    "label" : "Site 19378 stratum 2",
    "hasFeatureOfInterest" : "_:b43",
    "phenomenonTime" : "_:b71",
    "hasMember" : [ "_:b73", "_:b17", "_:b41" ]
  }, {
    "@id" : "ex-0:St4-19378",
    "@type" : "ssn-ext:ObservationCollection",
    "type" : "ogroup:Strata",
    "label" : "Site 19378 stratum 4",
    "hasFeatureOfInterest" : "_:b59",
    "phenomenonTime" : "_:b58",
    "hasMember" : "_:b20"
  }, {
    "@id" : "ex-0:St5-19378",
    "@type" : "ssn-ext:ObservationCollection",
    "type" : "ogroup:Strata",
    "label" : "Site 19378 stratum 5",
    "hasFeatureOfInterest" : "_:b75",
    "phenomenonTime" : "_:b31",
    "hasMember" : [ "_:b26", "_:b74", "_:b25" ]
  }, {
    "@id" : "ex-0:St6-19378",
    "@type" : "ssn-ext:ObservationCollection",
    "type" : "ogroup:Strata",
    "label" : "Site 19378 stratum 6",
    "hasFeatureOfInterest" : [ "_:b24", "ex-0:Site-19378" ],
    "phenomenonTime" : "_:b23",
    "hasMember" : "_:b22"
  }, {
    "@id" : "ex-0:St7-19378",
    "@type" : "ssn-ext:ObservationCollection",
    "type" : "ogroup:Strata",
    "label" : "Site 19378 stratum 7",
    "hasFeatureOfInterest" : "_:b65",
    "phenomenonTime" : "_:b42",
    "hasMember" : [ "_:b64", "_:b13", "_:b44" ]
  }, {
    "@id" : "ex-0:Tax-1-3727",
    "@type" : "ssn-ext:ObservationCollection",
    "type" : "ogroup:Taxa",
    "comment" : "AQ484041",
    "label" : "Site 3727 taxon 1",
    "hasFeatureOfInterest" : "_:b40",
    "phenomenonTime" : "_:b39",
    "hasMember" : [ "_:b37", "_:b38" ]
  }, {
    "@id" : "ex-0:Tax-2-3727",
    "@type" : "ssn-ext:ObservationCollection",
    "type" : "ogroup:Taxa",
    "comment" : "AQ627304",
    "label" : "Site 3727 taxon 2",
    "hasFeatureOfInterest" : "_:b30",
    "phenomenonTime" : "_:b3",
    "hasMember" : "_:b29"
  } ],
  "@context" : {
    "value" : {
      "@id" : "http://www.w3.org/1999/02/22-rdf-syntax-ns#value",
      "@type" : "http://www.w3.org/2001/XMLSchema#decimal"
    },
    "standard" : {
      "@id" : "http://www.tern.org.au/ns/plot/standard",
      "@type" : "@id"
    },
    "observedProperty" : {
      "@id" : "http://www.w3.org/ns/sosa/observedProperty",
      "@type" : "@id"
    },
    "hasResult" : {
      "@id" : "http://www.w3.org/ns/sosa/hasResult",
      "@type" : "@id"
    },
    "inXSDDate" : {
      "@id" : "http://www.w3.org/2006/time#inXSDDate",
      "@type" : "http://www.w3.org/2001/XMLSchema#date"
    },
    "hasMember" : {
      "@id" : "http://www.w3.org/ns/ssn/ext/hasMember",
      "@type" : "@id"
    },
    "phenomenonTime" : {
      "@id" : "http://www.w3.org/ns/sosa/phenomenonTime",
      "@type" : "@id"
    },
    "resultTime" : {
      "@id" : "http://www.w3.org/ns/sosa/resultTime",
      "@type" : "http://www.w3.org/2001/XMLSchema#dateTime"
    },
    "hasFeatureOfInterest" : {
      "@id" : "http://www.w3.org/ns/sosa/hasFeatureOfInterest",
      "@type" : "@id"
    },
    "label" : {
      "@id" : "http://www.w3.org/2000/01/rdf-schema#label"
    },
    "type" : {
      "@id" : "http://purl.org/dc/terms/type",
      "@type" : "@id"
    },
    "usedProcedure" : {
      "@id" : "http://www.w3.org/ns/sosa/usedProcedure",
      "@type" : "@id"
    },
    "comment" : {
      "@id" : "http://www.w3.org/2000/01/rdf-schema#comment"
    },
    "low" : {
      "@id" : "http://www.tern.org.au/ns/plot/low",
      "@type" : "http://www.w3.org/2001/XMLSchema#decimal"
    },
    "high" : {
      "@id" : "http://www.tern.org.au/ns/plot/high",
      "@type" : "http://www.w3.org/2001/XMLSchema#decimal"
    },
    "avg" : {
      "@id" : "http://www.tern.org.au/ns/plot/avg",
      "@type" : "http://www.w3.org/2001/XMLSchema#decimal"
    },
    "isSampleOf" : {
      "@id" : "http://www.w3.org/ns/sosa/isSampleOf",
      "@type" : "@id"
    },
    "geometry" : {
      "@id" : "http://www.w3.org/ns/locn#geometry",
      "@type" : "@id"
    },
    "geographicName" : {
      "@id" : "http://www.w3.org/ns/locn#geographicName"
    },
    "mapsheetNumber" : {
      "@id" : "http://www.tern.org.au/ns/plot/mapsheetNumber"
    },
    "mapsheetName" : {
      "@id" : "http://www.tern.org.au/ns/plot/mapsheetName"
    },
    "mapScale" : {
      "@id" : "http://www.tern.org.au/ns/plot/mapScale",
      "@type" : "@id"
    },
    "modified" : {
      "@id" : "http://purl.org/dc/terms/modified",
      "@type" : "http://www.w3.org/2001/XMLSchema#date"
    },
    "description" : {
      "@id" : "http://purl.org/dc/terms/description"
    },
    "hasResultQuality" : {
      "@id" : "http://www.tern.org.au/ns/plot/hasResultQuality",
      "@type" : "@id"
    },
    "hasArea" : {
      "@id" : "http://www.tern.org.au/ns/plot/hasArea",
      "@type" : "@id"
    },
    "identifier" : {
      "@id" : "http://purl.org/dc/terms/identifier"
    },
    "siteDescription" : {
      "@id" : "http://www.tern.org.au/ns/plot/siteDescription",
      "@type" : "@id"
    },
    "location" : {
      "@id" : "http://www.w3.org/ns/locn#location",
      "@type" : "@id"
    },
    "hasUltimateFeatureOfInterest" : {
      "@id" : "http://www.w3.org/ns/ssn/ext/hasUltimateFeatureOfInterest",
      "@type" : "@id"
    },
    "wasGeneratedBy" : {
      "@id" : "http://www.w3.org/ns/prov#wasGeneratedBy",
      "@type" : "@id"
    },
    "imports" : {
      "@id" : "http://www.w3.org/2002/07/owl#imports",
      "@type" : "@id"
    },
    "long" : {
      "@id" : "http://www.w3.org/2003/01/geo/wgs84_pos#long"
    },
    "lat" : {
      "@id" : "http://www.w3.org/2003/01/geo/wgs84_pos#lat"
    },
    "owl" : "http://www.w3.org/2002/07/owl#",
    "gml" : "http://www.opengis.net/ont/gml#",
    "xsd" : "http://www.w3.org/2001/XMLSchema#",
    "skos" : "http://www.w3.org/2004/02/skos/core#",
    "rdfs" : "http://www.w3.org/2000/01/rdf-schema#",
    "linn" : "http://gbif.example.org/id/linnean/",
    "ssn" : "http://www.w3.org/ns/ssn/",
    "geo" : "http://www.w3.org/2003/01/geo/wgs84_pos#",
    "cv-op" : "http://www.tern.org.au/cv/op/",
    "sf" : "http://www.opengis.net/ont/sf#",
    "dct" : "http://purl.org/dc/terms/",
    "bioregion" : "http://www.tern.org.au/cv/bioregion/",
    "plot" : "http://www.tern.org.au/ns/plot/",
    "cv-corveg" : "http://www.tern.org.au/cv/corveg/",
    "locn" : "http://www.w3.org/ns/locn#",
    "prov" : "http://www.w3.org/ns/prov#",
    "foaf" : "http://xmlns.com/foaf/0.1/",
    "sosa" : "http://www.w3.org/ns/sosa/",
    "dwcattributes" : "http://rs.tdwg.org/dwc/terms/attributes/",
    "dwcterms" : "http://rs.tdwg.org/dwc/terms/",
    "ssn-ext" : "http://www.w3.org/ns/ssn/ext/",
    "geosparql" : "http://www.opengis.net/ont/geosparql#",
    "unit" : "http://qudt.org/vocab/unit/",
    "cv" : "http://www.tern.org.au/cv/",
    "rdf" : "http://www.w3.org/1999/02/22-rdf-syntax-ns#",
    "ex-0" : "http://www.tern.org.au/dataset/examples/corveg-0/",
    "ogroup" : "http://www.tern.org.au/cv/corveg/group/",
    "time" : "http://www.w3.org/2006/time#",
    "dc" : "http://purl.org/dc/elements/1.1/"
  }
}
